ID;PART_LIST_NO;PART_LIST_DESCRIPTION;MODEL;POSITION;PART_NUMBER;PART_DESCRIPTION;QUANTITY;TYPE_DEFINING_NOTES;ACTION;ACTION_TYPE
1;13080553;Oil filter (Engine);1;1;21803087;Filter;1;E13L500HP;1;P
2;13080553;Oil filter (Engine);1;1;21803088;Filter;1;E13L550HP;1;P
3;13080553;Oil filter (Engine);1;2;24523486;Oil cooler;1;E13L500HP;1;S
4;13080553;Oil filter (Engine);1;2;24523486;Oil cooler;1;E13L550HP;1;S
5;13080553;Oil filter (Engine);1;3;27647538;O-ring;2;E13L500HP;1;S
6;13080553;Oil filter (Engine);1;3;27647538;O-ring;2;E13L550HP;1;S
7;13080553;Oil filter (Engine);1;4;23984567;Pipe;1;;;
8;13080553;Oil filter (Engine);1;5;23984558;Pipe;1;;;
9;13080554;Oil filter (Engine);1;1;61844085;Filter;1;E13L400HP;1;P
10;13080554;Oil filter (Engine);1;1;61844086;Filter;1;E13L450HP;1;P
11;13080554;Oil filter (Engine);1;2;24523486;Oil cooler;1;E13L400HP;1;S
12;13080554;Oil filter (Engine);1;2;24523482;Oil cooler;1;E13L450HP;1;S
13;13080554;Oil filter (Engine);1;3;27647538;O-ring;2;E13L400HP;1;S
14;13080554;Oil filter (Engine);1;3;27647538;O-ring;2;E13L450HP;1;S
15;13080554;Oil filter (Engine);1;4;23984567;Pipe;1;;;
16;13080554;Oil filter (Engine);1;5;23984558;Pipe;1;;;
17;25080557;Oil filter (Engine);1;1;21803087;Filter;1;E13L500HP;;
18;25080557;Oil filter (Engine);1;1;21803088;Filter;1;E13L550HP;;
19;25080557;Oil filter (Engine);1;2;24523486;Oil cooler;1;E13L500HP;;
20;25080557;Oil filter (Engine);1;2;24523486;Oil cooler;1;E13L550HP;;
21;25080557;Oil filter (Engine);1;3;1524061;O-ring;2;E13L500HP;1;S
22;25080557;Oil filter (Engine);1;3;1524062;O-ring;2;E13L550HP;1;S
23;25080557;Oil filter (Engine);1;4;23984567;Pipe;1;;;
24;25080557;Oil filter (Engine);1;5;23984558;Pipe;1;;;
25;25080558;Oil filter (Engine);1;1;21803085;Filter;1;E13L400HP;;
26;25080558;Oil filter (Engine);1;1;21803086;Filter;1;E13L450HP;;
27;25080558;Oil filter (Engine);1;2;24523486;Oil cooler;1;E13L400HP;;
28;25080558;Oil filter (Engine);1;2;24523482;Oil cooler;1;E13L450HP;;
29;25080558;Oil filter (Engine);1;3;27647538;O-ring;2;E13L400HP;;
30;25080558;Oil filter (Engine);1;3;27647538;O-ring;2;E13L450HP;;
31;25080558;Oil filter (Engine);1;3;27647538;O-ring;2;E13L400HP;;
32;25080558;Oil filter (Engine);1;3;27647538;O-ring;2;E13L450HP;;
33;25080558;Oil filter (Engine);1;4;8171332;Pipe;1;E13L400HP;1;S
34;25080558;Oil filter (Engine);1;4;8171333;Pipe;1;E13L450HP;1;S
35;25080558;Oil filter (Engine);1;5;23984558;Pipe;1;;;
36;13080555;Oil filter (Engine);2;1;11803485;Filter;1;E11L200HP;1;P
37;13080555;Oil filter (Engine);2;1;11803486;Filter;1;E11L250HP;1;P
38;13080555;Oil filter (Engine);2;1;11803285;Filter;1;E11L350HP;1;P
39;13080555;Oil filter (Engine);2;1;11803286;Filter;1;E11L300HP;1;P
40;13080555;Oil filter (Engine);2;2;14523310;Oil cooler;1;E11L200HP;1;S
41;13080555;Oil filter (Engine);2;2;14523310;Oil cooler;1;E11L250HP;1;S
42;13080555;Oil filter (Engine);2;2;14523330;Oil cooler;1;E11L350HP;1;S
43;13080555;Oil filter (Engine);2;2;14523330;Oil cooler;1;E11L300HP;1;S
44;13080555;Oil filter (Engine);2;3;27647538;O-ring;2;;1;S
45;13080555;Oil filter (Engine);2;4;23984567;Pipe;1;;;
46;13080555;Oil filter (Engine);2;5;23984558;Pipe;1;;;